[
	"https://fr.wikipedia.org/wiki/Karine_Lacombe",
	"https://www.degriffelectromenager.com/",
	"http://www.amisducadrenoir.fr/",
	"https://fr.wikipedia.org/wiki/Nuit_de_Cristal",
	"https://legaragealegumes.fr/",
	"https://www.musee-lalique.com/en",
	"http://www.corriges.net/",
	"https://www.horlogeparlante.com/heure-londres-royaume-uni-HEUREfrance2643743.html",
	"https://www.service-public.fr/particuliers/vosdroits/F19299",
	"https://fr.wikipedia.org/wiki/Stargate",
	"https://www.grandir-nature.com/",
	"https://www.strategic-culture.org/",
	"https://www.coinex.com/?lang=fr_FR",
	"http://mael.monnier.free.fr/bac_francais/etranger/viecamus.htm",
	"http://www.pontault-combault.fr/",
	"https://fr.piliapp.com/twitter-symbols/",
	"https://www.nord.banquepopulaire.fr/portailinternet/Editorial/Informations/Pages/banque-a-distance-sur-internet.aspx",
	"https://www.mazeau-immobilier.com/",
	"https://www.bayonne.fr/cest-a-bayonne/sports-et-loisirs/piscines",
	"https://www.novavax.com/",
	"https://tours.onvasortir.com/",
	"http://www.radiologie-beziers.com/",
	"https://fr.m.wikipedia.org/wiki/Le_Monde",
	"https://www.alternatif-bien-etre.com/",
	"https://rendement-assurance-vie.com/",
	"https://www.robots-tondeuses.eu/",
	"https://archive.org/web",
	"https://fr.wikipedia.org/wiki/Le_Seigneur_des_anneaux",
	"https://fr.wikipedia.org/wiki/David_Hamilton",
	"http://ent.univ-orleans.fr/",
	"https://www.bag.admin.ch/bag/fr/home/krankheiten/ausbrueche-epidemien-pandemien/aktuelle-ausbrueche-epidemien/novel-cov/empfehlungen-fuer-reisende/quarantaene-einreisende.html",
	"https://fr-fr.facebook.com/public/Philippe-Leconte",
	"https://sports.orange.fr/",
	"https://www.free.fr/freebox/freebox-revolution",
	"https://www.google.it/alerts",
	"https://www.biomerieux.com/fr/linstitut-merieux",
	"https://support.mozilla.org/fr/kb/regler-problemes-lecture-video-et-audio-firefox-windows",
	"http://www.perspectives-asiennes.org/",
	"https://iej.u-paris2.fr/fr/evenements/crfpa-2021-resultats-dadmissibilite",
	"https://fr.wikipedia.org/wiki/Enfant_indigo",
	"https://www.bbc.com/",
	"https://www.lagguitars.com/fr_FR/",
	"https://snaptik.app/fr",
	"https://www.mdcu-comics.fr/",
	"https://fr.wikipedia.org/wiki/Discord_(logiciel)",
	"https://leconjugueur.lefigaro.fr/conjugaison/verbe/choisir.html",
	"https://blog.mozilla.org/blog/2019/03/12/introducing-firefox-send-providing-free-file-transfers-while-keeping-your-personal-information-private",
	"https://www.tourdecinefrances.com/",
	"https://www.ikea.com/fr/fr/stores/bayonne-ametzondo",
	"https://france-inflation.com/inflation-depuis-1901.php",
	"https://tvmag.lefigaro.fr/programme-tv/programme/matrix-f261904",
	"https://www.aide.fr/",
	"https://fr.wikipedia.org/wiki/Totoro_(personnage)",
	"https://fr.wikipedia.org/wiki/Gu%C3%A9delon",
	"http://scarlatine.canalblog.com/",
	"https://www.ildys.org/",
	"https://fr.wikipedia.org/wiki/Zucchero",
	"https://fr.wikipedia.org/wiki/MacGyver",
	"https://www.skimania.com/",
	"https://fr.wikipedia.org/wiki/S%C3%A9rotonine",
	"https://www.hennessy.com/fr-fr",
	"https://www.capricieuse-grossiste.fr/",
	"https://www.canva.com/fr_fr/decouvrir/police-ecriture-moderne-en-ligne-gratuite",
	"http://lbbe.univ-lyon1.fr/",
	"https://www.supmaritime.fr/",
	"https://www.lepalacemulhouse.com/",
	"https://www.autodistribution.fr/",
	"https://www.service-public.fr/particuliers/vosdroits/F3140",
	"https://www.corporate-games.com/",
	"https://www.apmex.com/gold-price",
	"https://fr.wikihow.com/traiter-le-virus-d%27Epstein%E2%80%93Barr-(EBV)",
	"https://www.natalys.com/",
	"https://pixabay.com/fr/photos/search/nue?pagi=4",
	"https://fr.wikipedia.org/wiki/Tigre",
	"https://tvmag.lefigaro.fr/programme-tv/ce_soir_la_tv.html",
	"https://www.minecraft-france.fr/shaders-minecraft",
	"https://www.service-public.fr/particuliers/vosdroits/F10040",
	"https://www.mon-compte-formation.fr/",
	"https://mon-compte-particulier.enedis.fr/home-connectee/",
	"https://quartierdestissus.com/",
	"https://retraitesolidarite.caissedesdepots.fr/content/pep-s-la-nouvelle-plateforme-des-employeurs-publics",
	"https://lyc-bazin.monbureaunumerique.fr/",
	"https://www.lesechos.fr/economie-france/social/la-lourde-facture-pour-les-malades-du-coronavirus-a-lhopital-1228650",
	"https://www.locunole.fr/",
	"https://www.cinemas-utopia.org/toulouse",
	"https://deuil.comemo.org/poemes-citations-texte-deuil-mort",
	"https://escapefan.com/",
	"https://recettes.doctissimo.fr/pate-a-choux-sucree.htm",
	"https://www.motsavec.fr/",
	"https://www.fonebank.fr/",
	"http://randonneursducheran.com/",
	"https://www.manroulette.com/",
	"https://french.alibaba.com/catalog/Machines-de-production-de-papier_cid100009417",
	"https://www.troc-velo.be/",
	"https://www.disnat.com/",
	"https://www.vendre.com/",
	"https://vincentmunier.com/shop/fr/12-livres",
	"https://fr.wikipedia.org/wiki/Boson_de_Higgs",
	"http://www.sydom-aveyron.com/",
	"https://www.apple.com/fr/shop/iphone/iphone-accessories/cases-protection",
	"https://bouxwiller.eu/",
	"https://qrm.fr/",
	"https://www.bricks.co/",
	"http://french.presstv.com/",
	"https://www.cremeanglaise.fr/",
	"https://fr.wikipedia.org/wiki/Adonis_(mythologie)",
	"https://www.microsoft.com/en-us/software-download/windows7",
	"https://www.observatoiredeparis.psl.eu/",
	"https://fr.wikipedia.org/wiki/Statine",
	"http://www.algorea.org/",
	"https://www.hfhotels.com/fr/hotels/hf-ipanema-park-fr",
	"https://fr.eni.com/particuliers/maitriser-sa-consommation",
	"https://fr.wikipedia.org/wiki/Humanisme_(philosophie)",
	"http://www.damiengazel.fr/",
	"http://www.odenas.fr/",
	"https://hypnohub.net/",
	"https://www.youtube.com/watch?v=IZo7zfQRwAE",
	"https://www.anefa.org/",
	"https://www.avelo.s://www.grandparc-andilly.com/",
	"https://www.gouvernement.fr/contacter-les-ministeres",
	"https://www.neocom.fr/",
	"https://citeroyaleloches.fr/",
	"https://www.cestmafournee.com/",
	"https://www.revillonchocolatier.fr/",
	"https://www.studiokraft.fr/",
	"https://www.ski-alpin-chartreuse.com/",
	"https://fr.wikipedia.org/wiki/Tristan_et_Iseut",
	"https://home.google.com/",
	"https://www.namesilo.com/",
	"https://fr.wikipedia.org/wiki/Doxa",
	"https://www.aide-sociale.fr/ameli-contact/",
	"https://www.frenchbee.com/fr",
	"https://adoptmetradingvalues.com/",
	"https://www.ameli.fr/assure/sante/urgence/pathologies/decollement-retine",
	"https://www.jeangosset.fr/",
	"https://www.nuit-amour.fr/",
	"https://fr.m.wikipedia.org/wiki/France",
	"https://www.coucherdusoleilaujourdhui.fr/",
	"https://www.service-public.fr/particuliers/vosdroits/R18929",
	"https://www.imdb.com/title/tt8847712",
	"https://movies.disney.com/encanto",
	"https://www.midobras.com/",
	"https://fr.wikipedia.org/wiki/Fabcaro",
	"https://fr.wikipedia.org/wiki/Quid",
	"https://fr.wikipedia.org/wiki/Deepwater",
	"https://assurance.carrefour.fr/assurance-des-appareils-nomades/assurance-ordinateur-portable/conseils-astuces/capture-ecran-ordinateur",
	"https://lesoursonsdecyrillignac.com/",
	"https://mjp.univ-perp.fr/constit/ly1977.htm",
	"https://www.villesmdn.fr/",
	"http://campusport.univ-lille2.fr/capeps/document/jp-muguet_bb1.pdf",
	"https://fr.indeed.com/cmp/Christian-Dior/reviews",
	"https://leconjugueur.lefigaro.fr/conjugaison/verbe/disparaitre2.html",
	"https://www.apple.com/fr/imovie/",
	"https://www.service-public.fr/particuliers/vosdroits/F13213",
	"https://www.conservativewoman.co.uk/",
	"https://www.minecraft-france.fr/maps",
	"https://mesnotices.20minutes.fr/manuel-notice-mode-emploi/ESSENTIELB",
	"https://dbrand.com/",
	"https://addons.mozilla.org/fr/firefox/addon/video-downloadhelper/",
	"https://fr.wikipedia.org/wiki/Sherlock_(s%C3%A9rie_t%C3%A9l%C3%A9vis%C3%A9e)",
	"https://www.e.leclerc/mag/e-leclerc-etampes",
	"http://evene.lefigaro.fr/",
	"https://www.klpatisserie.com/",
	"https://lyc-st-francois-de-sales.monbureaunumerique.fr/",
	"http://lionel.ponnelle.pagesperso-orange.fr/",
	"https://www.saintlary.com/hiver/skier/webcams",
	"https://wc.ooreka.fr/comprendre/evacuation-wc",
	"https://immobilier.lefigaro.fr/annonces/edito/louer/je-resilie/modele-de-lettre-resiliation-location-meublee",
	"http://www.cibtp-grandouest.fr/",
	"https://fr.wikipedia.org/wiki/Troll",
	"https://cinelefoyer.com/",
	"https://vintage-audio-heritage.fr/",
	"https://www.savagex.com/",
	"https://fr.wikipedia.org/wiki/Colette",
	"https://www.realoem.com/",
	"https://www.brytonsport.com/",
	"https://prime-video-mytv.com/",
	"https://www.annuaire-ebook.com/",
	"https://eluard.org/",
	"http://www.live-foot.net/",
	"https://defenseurdesdroits.fr/fr/claire-hedon-defenseure-des-droits",
	"https://convertisseurmp3.net/",
	"https://scrabblewordfinder.org/words-with-friends-cheat",
	"https://www.dcode.fr/derivee",
	"https://www.service-public.fr/particuliers/vosdroits/F23468",
	"https://avenuedesinvestisseurs.fr/defiscalisation/",
	"https://sendao.fr/",
	"https://www.fortuneo.fr/parrainage",
	"http://streamcomplet-vf.com/",
	"https://fr.wikipedia.org/wiki/Soprano",
	"https://www.vedettesdebrehat.com/",
	"https://stackofstake.com/",
	"https://fortnitetracker.com/",
	"https://www.jardinet.fr/",
	"https://www.service-public.fr/particuliers/vosdroits/F15274",
	"https://www.parnassiens.com/",
	"https://rs.ambafrance.org/-Ambassade-",
	"https://jeretiens.net/ou-se-leve-et-ou-se-couche-le-soleil/",
	"https://zavrol.com/",
	"https://www.bbc.co.uk/sport/horse-racing/uk-ireland/results",
	"https://fr.wikipedia.org/wiki/Vocabulaire_du_capitaine_Haddock",
	"https://support.steampowered.com/kb_article.php?l=french&ref=6345-QIDX-7244",
	"https://www.diapasonmag.fr/",
	"https://starleaf.com/fr",
	"https://www.ayaline.com/portfolio/jaime-laisne",
	"https://steamunlocked.net/",
	"https://gazette-ariegeoise.fr/departementales-et-regionales-2021-toute-lactu-des-elections-en-ariege",
	"https://www.fregis.com/infos-sante/maladie-surrenalienne-chez-le-furet",
	"https://fr.wikipedia.org/wiki/Coco_Chanel",
	"https://www.service-public.fr/particuliers/actualites/A12956?xtor=RSS-111",
	"https://www.solarfocus.com/fr/produits/chaudbiomass1/chaudiere-pellet-buche",
	"https://forgottenrealms.fandom.com/wiki/Sel%C3%BBne",
	"https://support.apple.com/fr-fr/HT204306",
	"https://goatlings.fandom.com/wiki/Wikiling_--_The_Goatlings_Database",
	"https://www.reddit.com/r/summonerswar",
	"https://avis-de-deces.ouest-france.fr/obseques/49-maine-et-loire/49007-angers",
	"https://www.service-public.fr/particuliers/vosdroits/F491",
	"https://www.algorand.com/",
	"http://madame.lefigaro.fr/personnalite/sophie-marceau",
	"https://cnrtl.fr/definition/apodictique",
	"https://sylvainetsylvette.fandom.com/fr/wiki/Les_albums",
	"https://turbotax.intuit.com/",
	"https://www.technopole-anticipa.com/",
	"https://fr.wikipedia.org/wiki/Taxonomie",
	"https://m.17track.net/fr",
	"https://accounts.shopify.com/",
	"https://www.confort-sauter.com/",
	"https://particuliers.es.fr/Offres-energies-services/Services/Les-services-en-ligne/Espace-client",
	"https://crowdbunker.com/",
	"https://www.qualios.com/",
	"https://picasa.fr.softonic.com/",
	"https://sportclips.com/",
	"https://www.amazon.fr/blackfriday?geniuslink=true&tag=georiot-fr-default-21",
	"https://fr.advfn.com/bourses-mondiales",
	"https://www.materiel-velo.com/infos/quels-sont-les-10-meilleurs-home-trainer-connectes",
	"https://www.gouvernement.fr/composition-du-gouvernement",
	"https://recettes.doctissimo.fr/filets-de-dorade-a-la-fondue-de-poireaux.htm",
	"https://www.simulation-impots.eu/",
	"https://www.piopar.fr/",
	"http://cailleetcailloux.canalblog.com/",
	"https://www.vinstagemusic.fr/",
	"http://sbssa.ac-amiens.fr/sites/sbssa.ac-amiens.fr/IMG/pdf/5-_Exemple_de_ma_progression_pour_Seconde_Bac_Pro_3_ans.pdf",
	"https://poblom.com/",
	"https://help.netflix.com/fr/node/33222",
	"https://0060677d.index-education.net/pronote/?fd=1",
	"https://www.lefigaro.fr/culture/des-copies-pirates-d-aneantir-le-nouveau-houellebecq-disponibles-quinze-jours-avant-sa-sortie-20211223",
	"https://www.chassimages.com/forum/index.php",
	"http://www.1980-games.com/",
	"https://www.ikea.com/fr/fr/stores/velizy",
	"http://www.cinelefoyer.com/",
	"https://fr.wikipedia.org/wiki/Joan_Baez",
	"http://www.rubion-rennes.fr/",
	"https://fr.wikipedia.org/wiki/Kabylie",
	"http://pas.upmc.fr/",
	"https://www.samsung.com/fr/support/mobile-devices/comment-installer-retirer-et-formater-la-carte-memoire",
	"https://lubuntu.net/",
	"https://assistance.orange.fr/assistance-commerciale/l-identification/gerer-vos-mots-de-passe/modifier-le-mot-de-passe-de-votre-compte-orange_72063-72913",
	"https://siec.education.fr/examens/bac-general/inscription-au-bac-general-263.html",
	"https://www.cicatridine.com/",
	"https://www.passetoncode.fr/",
	"https://conjugaison.lemonde.fr/conjugaison/premier-groupe/envoyer",
	"https://www.music-map.com/",
	"https://fr.wikipedia.org/wiki/Chartreuse_(liqueur)",
	"https://fr.wiktionary.org/wiki/d%C3%A8s_potron-minet",
	"https://wordreference.fr.softonic.com/",
	"https://laboitenumerique.calvados.fr/",
	"https://07b866437b6b1cdf5897-a56f0a75a98e1637786e741f3f6cbd51.ssl.cf2.rackcdn.com/Smart%20watch%20Nov19%20FR.pdf",
	"https://immobilier-chasse.info/",
	"https://fr.wikihow.com/se-d%C3%A9barrasser-des-lentes-et-des-poux",
	"https://jecontacte.com/",
	"https://fr.wikipedia.org/wiki/Patricia_Cornwell",
	"https://www.fnacserenite.com/",
	"https://witcher.fandom.com/wiki/Witcher_Wiki",
	"https://lodas.fr/",
	"https://www.onoff.app/accueil",
	"https://www.lyf.eu/fr/",
	"https://micheldogna.fr/",
	"http://hernieinguinale.fr/",
	"https://fr.wikipedia.org/wiki/List%C3%A9riose",
	"https://www.sortir-plus.fr/",
	"https://www.planetcine.fr/",
	"https://www.microsoft.com/en-in/windows/windows-11",
	"https://ent.univ-paris1.fr/accueil",
	"https://www.assiettechampenoise.com/",
	"https://partir.ouest-france.fr/thailande/covid-19",
	"https://commentairecompose.fr/une-charogne-baudelaire/",
	"https://assistance.orange.fr/assistance-commerciale/la-gestion-de-vos-offres-et-options/resilier-votre-offre/resilier-les-modalites-pour-l-offre-internet_33004-33762",
	"https://vimeo.com/groups/extremebikini/videos",
	"https://e-tecely.tcl.fr/accueil.do",
	"https://www.oukitel.com/",
	"https://bail.dispofi.fr/IRL-indice-reference-loyers",
	"https://fr.wikipedia.org/wiki/Fiat_Panda",
	"https://www.service-public.fr/particuliers/vosdroits/F21089",
	"https://www.aljt.com/",
	"https://artacademy.org.uk/",
	"http://pliage-serviette.fr/",
	"https://www.ikea.com/fr/fr/cat/lack-serie-09063",
	"https://fr.wikipedia.org/wiki/Cornouailles",
	"https://downloads.joomla.org/fr/",
	"https://www.capbridge.com/",
	"http://clubble.com/",
	"https://www.letempsdevivre.fr/",
	"https://www.bonnel-chauffage.fr/",
	"https://www.valdefrance.banquepopulaire.fr/portailinternet/Editorial/BanqueEnLigne/Pages/demo-cyberplus.aspx",
	"https://www.lobbying-europe.com/",
	"http://www.largeteenboobs.com/",
	"https://mutuelle.ooreka.fr/comprendre/plafond-securite-sociale",
	"https://fr.wikipedia.org/wiki/Tenerife",
	"https://www.domainedopale.fr/",
	"https://www.gouvernement.fr/conseil-des-ministres/2020-10-07",
	"http://www.glaucome.net/",
	"https://www.wilmaa.com/en/my/login",
	"https://privnote.com/",
	"https://ent.unilim.fr/",
	"https://www.bimago.fr/papiers-peints.html",
	"https://fr.m.wikipedia.org/wiki/Porto-Novo",
	"https://magasin.vertbaudet.fr/",
	"https://fr.wikipedia.org/wiki/S%C3%A9bastien_Le_Prestre_de_Vauban",
	"https://developer.nvidia.com/cuda-downloads",
	"https://fr.wikipedia.org/wiki/Fr%C3%AAne",
	"https://thehill.com/homenews/state-watch/554332-oregon-counties-vote-to-secede-to-idaho",
	"https://www.jedeclaremonmeuble.com/",
	"https://fr.wikipedia.org/wiki/Pages_jaunes",
	"https://www.lesplendid.com/",
	"https://www.calendrier-lunaire.net/les-phases-de-la-lune",
	"https://velas.com/",
	"https://parkinsonsnewstoday.com/",
	"https://fr.wikipedia.org/wiki/Holodomor",
	"https://fr.wikipedia.org/wiki/HDR",
	"https://fr.wikipedia.org/wiki/Ricotta",
	"https://doctolib.fr/depistage-covid-19-pcr-prelevement-naso-pharynge",
	"https://www.1jour1vin.com/fr",
	"https://fr.wikipedia.org/wiki/Code_promo",
	"https://www.sftrf.fr/fr/index.aspx",
	"https://www.ville-antony.fr/semi-marathon",
	"https://fr.wikipedia.org/wiki/Fran%C3%A7ois-Ren%C3%A9_de_Chateaubriand",
	"https://drjoedispenza.com/",
	"https://www.service-public.fr/particuliers/vosdroits/F3134",
	"https://www.esf-grand-bo.com/",
	"https://www.hguitare.com/",
	"https://www.puzzle-binairo.com/",
	"https://www.ikea.com/fr/fr/cat/hemnes-serie-chambre-11731",
	"https://fr.wikipedia.org/wiki/Boris_Eltsine",
	"https://www.villamedici.it/fr",
	"https://www.disney.com/",
	"https://www.voelkl.com/fr/",
	"https://support.sap.com/en/alm/solution-manager/processes-72/maintenance-planner.html",
	"https://www.amazon.fr/b?node=26403091031",
	"https://lacuisinedannie.20minutes.fr/recette-pate-a-crepes-au-sarrasin-1118.html",
	"http://www.sciage-du-bois.com/",
	"https://www.gaultmillau.com/",
	"https://regionreunion.com/formation",
	"https://www.europenvironnement.fr/",
	"https://fr.wikipedia.org/wiki/Carbonate_de_sodium",
	"https://www.narbonne-arena.fr/",
	"https://www.garesetconnexions.sncf/fr/gare/frxdn/douai/transports-horaires/liste",
	"https://hifi-video.fr/",
	"https://www.naturalforme.fr/lemag/vitamines-c-d-et-zinc-le-trio-de-choc-pour-votre-immunite",
	"http://golflagrandemotte.com/",
	"http://etudes-batiment.ac-dijon.fr/",
	"https://www.remy-cointreau.com/fr/",
	"https://occasion.renault.fr/vehicules.html",
	"https://recettes.doctissimo.fr/faisan-chasseur.htm",
	"https://www.service-public.fr/particuliers/vosdroits/F10409",
	"https://mobile.agoravox.fr/",
	"https://www.bmw.be/fr/home.html",
	"https://fr.wikipedia.org/wiki/PCR",
	"https://www.mainecoon-inlove.ch/",
	"https://www.covidom.fr/",
	"http://www.heure.com/",
	"https://www.comap.fr/",
	"https://www.gouvernement.fr/beneficiez-de-la-prime-a-la-conversion-des-chaudieres",
	"https://fr.wikipedia.org/wiki/Averro%C3%A8s",
	"https://www.cen-neurologie.fr/deuxieme-cycle/mouvements-anormaux",
	"https://laportelatine.org/",
	"https://consumer.huawei.com/fr/phones/p40-lite/specs",
	"https://www.pokepedia.fr/Fantominus",
	"https://play.google.com/store/apps/details?gl=US&hl=fr&id=com.iscoolentertainment.snc",
	"https://www.emmaus31.org/",
	"https://ahlakid.com/",
	"https://www.cinemabalzac.com/",
	"https://microsoft-outlook.fr.softonic.com/",
	"https://www.jours-ouvres.com/",
	"https://www.mondedestars.com/",
	"https://fr.wikipedia.org/wiki/Saindoux",
	"https://www.erde.fr/",
	"https://www.rasage-classique.com/",
	"https://frontlinemds.com/",
	"https://translate.google.be/?hl=fr",
	"https://www.choisirsonfioul.fr/",
	"https://www.un.org/en/observances/human-rights-day",
	"https://www.esf-valthorens.com/",
	"https://shayanashop.com/",
	"https://www.gruissan-balneo.com/",
	"https://fr.wikipedia.org/wiki/Limoges",
	"http://gdsreseau3m.com/",
	"https://mediabox.sarthe.fr/",
	"https://www.jujube-en-cuisine.fr/veritable-pain-epices",
	"https://sauvons-nos-zones-blanches-et-fuyons-la-5g.fr/",
	"https://www.parabol.co/",
	"https://fr.wikipedia.org/wiki/Jean-Marie_Pelt",
	"https://lannuaire.service-public.fr/normandie/seine-maritime/cpam-76540-02",
	"https://almagrownintown.fr/",
	"https://marmiton.org/recettes/recette_coq-au-vin-maison_25755.aspx",
	"https://www.service-public.fr/particuliers/vosdroits/F35083",
	"https://www.facebook.com/surunairdeterre",
	"https://www.service-public.fr/professionnels-entreprises/vosdroits/F23267",
	"https://fr.wikipedia.org/wiki/Circoncision",
	"https://lesbellesmaisonsduperche.fr/",
	"https://www.signe-zodiaque.com/",
	"https://www.service-public.fr/particuliers/vosdroits/R42947",
	"https://www.formation.etoile.regioncentre-valdeloire.fr/organisme/14291",
	"https://www.service-public.fr/particuliers/vosdroits/F16842",
	"https://fr.wikipedia.org/wiki/Adolphe_Thiers",
	"http://www.carrelage-cruz.fr/",
	"https://rosa-luxemburg.mon-ent-occitanie.fr/",
	"https://uk.indeed.com/jobs-in-Lincoln",
	"https://www.geofoncier.fr/4-1-4-connaitre_proprietaire_parcelle.php",
	"https://www.brico-fenetre.com/",
	"http://www.masdaigret.fr/",
	"http://www.ogcnice.eu/",
	"https://www.polemia.com/",
	"https://getbootstrap.com/docs/5.0/getting-started/introduction",
	"https://www.dedietrich-electromenager.fr/",
	"http://www.ville-tournon.com/",
	"https://www.lidl.be/",
	"https://www.cabaret-moustache.fr/",
	"https://www.meo.fr/",
	"https://www.luminaire.fr/",
	"https://montauban-services.org/",
	"https://www.ikea.com/ie/en",
	"https://www.espn.com/college-football/team/_/id/130/michigan-wolverines",
	"https://www.eauduponant.fr/",
	"https://fr.wikipedia.org/wiki/Jacques_Dutronc",
	"http://kanji.free.fr/",
	"https://www.nougat-chabert-guillot.com/",
	"https://visualstudio.microsoft.com/",
	"https://ideetexte.ouest-france.fr/1992-condoleances-message-soutien.html",
	"https://www.tiktok.com/en/",
	"https://www.patisserie-foucher.com/",
	"https://comparateur.leparisien.fr/comparatif-meilleures-banques-en-ligne",
	"https://www.lafelicita.fr/",
	"https://ffm.engage-sports.com/",
	"https://www.lalanguefrancaise.com/orthographe/un-ou-une-espece-de-orthographe",
	"https://www.zikinf.com/",
	"https://www.starwars-universe.com/",
	"https://www.cineclubdecaen.com/",
	"https://www.laiterie-gilbert.fr/",
	"http://www.cerlis.fr/",
	"https://www.service-public.fr/particuliers/vosdroits/F868",
	"https://www.dell.com/cd/p?cat=dell-mobile-projectors&isredir=true&view=standard",
	"https://www.nordictrack.fr/",
	"https://www.largo.fr/",
	"https://www.lescinemasaixois.com/",
	"https://www.cine-vox.com/",
	"https://lacuisinedannie.20minutes.fr/recette-carottes-et-navets-glaces-994.html",
	"https://fr.wikipedia.org/wiki/Pirates_des_Cara%C3%AFbes",
	"https://www.finisterehabitat.fr/",
	"https://www.hotel-lebellevue.fr/",
	"https://minecraft.fandom.com/fr/wiki/Trident",
	"https://www.lynxbroker.fr/",
	"https://radiomz.org/",
	"http://www.swallowed.com/",
	"https://www.dailymotion.com/video/x5qbh58",
	"https://www.musees.strasbourg.eu/musee-d-art-moderne-et-contemporain",
	"https://fr.wikipedia.org/wiki/Eukaryota",
	"https://fr.wikipedia.org/wiki/Victor_Vasarely",
	"https://mendes.paysdelaloire.e-lyco.fr/",
	"https://services.info-retraite.fr/service/verifier-mon-releve-de-carriere-en-ligne",
	"https://www.havaianas-store.com/fr/femme/tongs",
	"https://www.youtube.com/watch?v=JPJjwHAIny4",
	"https://fr.wikipedia.org/wiki/Kanye_West",
	"https://laines-paysannes.fr/",
	"https://numerodesemaine.fr/",
	"https://windows-defender.fr.softonic.com/",
	"http://horoscope-jour.fr/",
	"https://fr.wikipedia.org/wiki/Auguste_Escoffier",
	"https://www.cerballiance.fr/fr",
	"https://www.gliss-deal.com/",
	"https://www.lalanguefrancaise.com/orthographe/je-serai-ou-je-serais-conjugaison",
	"http://www.clg-hugo-lacelle.ac-versailles.fr/",
	"https://lacuisinedannie.20minutes.fr/recette-pates-fraiches-maison-aux-oeufs--1298.html",
	"https://www.tucoenergie.fr/votre-projet-photovoltaique/optimisation-production-solaredge",
	"https://www.bymycar.fr/concessions/opel-fontaine-grenoble-bymycar-41",
	"https://fr.wikipedia.org/wiki/Google_Maps",
	"https://www.portail-autoentrepreneur.fr/academie/cumul/retraite-auto-entrepreneur",
	"https://fr.wikipedia.org/wiki/Les_Animaux_fantastiques_(film)",
	"https://m.scan-manga.com/TOP-Yaoi.html",
	"https://conjugaison.lemonde.fr/conjugaison/premier-groupe/appeler",
	"https://www.stoppub.fr/",
	"https://www.escapegamecrolles.fr/",
	"https://www.mayoclinic.org/coronavirus-covid-19/vaccine-tracker",
	"http://travaux.ovh.net/?do=details&id=39371",
	"https://fr.wikipedia.org/wiki/Chicago",
	"https://fr.wikipedia.org/wiki/Catholicisme"
]
